{
  "data": {
    "projects": [
      {
        "id": "0c6e5111-9bc9-4a12-acec-4c87c88abc3a",
        "name": "Smoke Authored 1771358855",
        "description": null,
        "status": "planning",
        "priority": "medium",
        "startDate": null,
        "endDate": null,
        "estimatedEndDate": null,
        "workspaceId": "dfbc9223-2846-48ff-bda1-c2afc1e6e6f9",
        "organizationId": "6ba41b63-5c2b-4dc7-8b7a-138d6d03320c",
        "projectManagerId": null,
        "budget": null,
        "actualCost": null,
        "currency": "USD",
        "laborRateMode": "flatRate",
        "flatLaborRatePerHour": null,
        "costTrackingEnabled": false,
        "waterfallEnabled": false,
        "baselinesEnabled": false,
        "earnedValueEnabled": false,
        "capacityEnabled": false,
        "capacityMode": "both",
        "riskLevel": "medium",
        "createdById": "8406d901-4bc5-453a-be8f-684afdb0b281",
        "createdAt": "2026-02-17T20:07:35.295Z",
        "updatedAt": "2026-02-17T20:07:35.295Z",
        "portfolioId": null,
        "programId": null,
        "size": null,
        "methodology": "agile",
        "templateId": "69d94902-9740-442b-9374-a56e1ddfbaec",
        "templateVersion": null,
        "templateLocked": false,
        "templateSnapshot": null,
        "state": "DRAFT",
        "startedAt": null,
        "structureLocked": false,
        "structureSnapshot": null,
        "health": "HEALTHY",
        "behindTargetDays": null,
        "healthUpdatedAt": null,
        "deliveryOwnerUserId": null,
        "activeKpiIds": [],
        "changeManagementEnabled": false,
        "iterationsEnabled": false,
        "governanceSource": "TEMPLATE",
        "estimationMode": "both",
        "defaultIterationLengthDays": null,
        "definitionOfDone": null,
        "sourceProjectId": null,
        "cloneDepth": 0,
        "clonedAt": null,
        "clonedBy": null
      },
      {
        "id": "92d3e84b-aee8-458b-9aae-f51d53e80720",
        "name": "Smoke Authored 1771358741",
        "description": null,
        "status": "planning",
        "priority": "medium",
        "startDate": null,
        "endDate": null,
        "estimatedEndDate": null,
        "workspaceId": "dfbc9223-2846-48ff-bda1-c2afc1e6e6f9",
        "organizationId": "6ba41b63-5c2b-4dc7-8b7a-138d6d03320c",
        "projectManagerId": null,
        "budget": null,
        "actualCost": null,
        "currency": "USD",
        "laborRateMode": "flatRate",
        "flatLaborRatePerHour": null,
        "costTrackingEnabled": true,
        "waterfallEnabled": false,
        "baselinesEnabled": false,
        "earnedValueEnabled": false,
        "capacityEnabled": true,
        "capacityMode": "both",
        "riskLevel": "medium",
        "createdById": "8406d901-4bc5-453a-be8f-684afdb0b281",
        "createdAt": "2026-02-17T20:05:41.285Z",
        "updatedAt": "2026-02-17T20:05:41.285Z",
        "portfolioId": null,
        "programId": null,
        "size": null,
        "methodology": "hybrid",
        "templateId": "b91b399f-a03e-41bf-9270-bfeaa3b36579",
        "templateVersion": null,
        "templateLocked": false,
        "templateSnapshot": null,
        "state": "DRAFT",
        "startedAt": null,
        "structureLocked": false,
        "structureSnapshot": null,
        "health": "HEALTHY",
        "behindTargetDays": null,
        "healthUpdatedAt": null,
        "deliveryOwnerUserId": null,
        "activeKpiIds": [],
        "changeManagementEnabled": true,
        "iterationsEnabled": true,
        "governanceSource": "TEMPLATE",
        "estimationMode": "both",
        "defaultIterationLengthDays": null,
        "definitionOfDone": null,
        "sourceProjectId": null,
        "cloneDepth": 0,
        "clonedAt": null,
        "clonedBy": null
      },
      {
        "id": "9d247eba-06ec-411c-bd07-4fc2bb6cc237",
        "name": "Smoke Waterfall 1771358733",
        "description": null,
        "status": "planning",
        "priority": "medium",
        "startDate": null,
        "endDate": null,
        "estimatedEndDate": null,
        "workspaceId": "dfbc9223-2846-48ff-bda1-c2afc1e6e6f9",
        "organizationId": "6ba41b63-5c2b-4dc7-8b7a-138d6d03320c",
        "projectManagerId": null,
        "budget": null,
        "actualCost": null,
        "currency": "USD",
        "laborRateMode": "flatRate",
        "flatLaborRatePerHour": null,
        "costTrackingEnabled": true,
        "waterfallEnabled": true,
        "baselinesEnabled": true,
        "earnedValueEnabled": true,
        "capacityEnabled": true,
        "capacityMode": "both",
        "riskLevel": "medium",
        "createdById": "8406d901-4bc5-453a-be8f-684afdb0b281",
        "createdAt": "2026-02-17T20:05:33.570Z",
        "updatedAt": "2026-02-17T20:05:33.570Z",
        "portfolioId": null,
        "programId": null,
        "size": null,
        "methodology": "waterfall",
        "templateId": "1a1f53a4-3dc3-4e72-b9ed-1fb81a0b08e6",
        "templateVersion": null,
        "templateLocked": false,
        "templateSnapshot": null,
        "state": "DRAFT",
        "startedAt": null,
        "structureLocked": false,
        "structureSnapshot": null,
        "health": "HEALTHY",
        "behindTargetDays": null,
        "healthUpdatedAt": null,
        "deliveryOwnerUserId": null,
        "activeKpiIds": [],
        "changeManagementEnabled": true,
        "iterationsEnabled": false,
        "governanceSource": "TEMPLATE",
        "estimationMode": "both",
        "defaultIterationLengthDays": null,
        "definitionOfDone": null,
        "sourceProjectId": null,
        "cloneDepth": 0,
        "clonedAt": null,
        "clonedBy": null
      },
      {
        "id": "7de2fea5-057d-4b59-901b-5b82aa048f67",
        "name": "Smoke Scrum 1771358732",
        "description": null,
        "status": "planning",
        "priority": "medium",
        "startDate": null,
        "endDate": null,
        "estimatedEndDate": null,
        "workspaceId": "dfbc9223-2846-48ff-bda1-c2afc1e6e6f9",
        "organizationId": "6ba41b63-5c2b-4dc7-8b7a-138d6d03320c",
        "projectManagerId": null,
        "budget": null,
        "actualCost": null,
        "currency": "USD",
        "laborRateMode": "flatRate",
        "flatLaborRatePerHour": null,
        "costTrackingEnabled": false,
        "waterfallEnabled": false,
        "baselinesEnabled": false,
        "earnedValueEnabled": false,
        "capacityEnabled": false,
        "capacityMode": "both",
        "riskLevel": "medium",
        "createdById": "8406d901-4bc5-453a-be8f-684afdb0b281",
        "createdAt": "2026-02-17T20:05:33.040Z",
        "updatedAt": "2026-02-17T20:05:33.040Z",
        "portfolioId": null,
        "programId": null,
        "size": null,
        "methodology": "agile",
        "templateId": "49ddbc25-7ecb-4f5b-8520-c7835437d5f4",
        "templateVersion": null,
        "templateLocked": false,
        "templateSnapshot": null,
        "state": "DRAFT",
        "startedAt": null,
        "structureLocked": false,
        "structureSnapshot": null,
        "health": "HEALTHY",
        "behindTargetDays": null,
        "healthUpdatedAt": null,
        "deliveryOwnerUserId": null,
        "activeKpiIds": [],
        "changeManagementEnabled": false,
        "iterationsEnabled": true,
        "governanceSource": "TEMPLATE",
        "estimationMode": "both",
        "defaultIterationLengthDays": null,
        "definitionOfDone": null,
        "sourceProjectId": null,
        "cloneDepth": 0,
        "clonedAt": null,
        "clonedBy": null
      },
      {
        "id": "f1dfb4e1-df2f-4f2e-a071-a173df9ed189",
        "name": "Scrum After Migration 1771358726",
        "description": null,
        "status": "planning",
        "priority": "medium",
        "startDate": null,
        "endDate": null,
        "estimatedEndDate": null,
        "workspaceId": "dfbc9223-2846-48ff-bda1-c2afc1e6e6f9",
        "organizationId": "6ba41b63-5c2b-4dc7-8b7a-138d6d03320c",
        "projectManagerId": null,
        "budget": null,
        "actualCost": null,
        "currency": "USD",
        "laborRateMode": "flatRate",
        "flatLaborRatePerHour": null,
        "costTrackingEnabled": false,
        "waterfallEnabled": false,
        "baselinesEnabled": false,
        "earnedValueEnabled": false,
        "capacityEnabled": false,
        "capacityMode": "both",
        "riskLevel": "medium",
        "createdById": "8406d901-4bc5-453a-be8f-684afdb0b281",
        "createdAt": "2026-02-17T20:05:26.768Z",
        "updatedAt": "2026-02-17T20:05:26.768Z",
        "portfolioId": null,
        "programId": null,
        "size": null,
        "methodology": "agile",
        "templateId": "49ddbc25-7ecb-4f5b-8520-c7835437d5f4",
        "templateVersion": null,
        "templateLocked": false,
        "templateSnapshot": null,
        "state": "DRAFT",
        "startedAt": null,
        "structureLocked": false,
        "structureSnapshot": null,
        "health": "HEALTHY",
        "behindTargetDays": null,
        "healthUpdatedAt": null,
        "deliveryOwnerUserId": null,
        "activeKpiIds": [],
        "changeManagementEnabled": false,
        "iterationsEnabled": true,
        "governanceSource": "TEMPLATE",
        "estimationMode": "both",
        "defaultIterationLengthDays": null,
        "definitionOfDone": null,
        "sourceProjectId": null,
        "cloneDepth": 0,
        "clonedAt": null,
        "clonedBy": null
      },
      {
        "id": "69a32bc4-557e-4b9c-97f4-31b8aeb01b06",
        "name": "TaskDebug 1771358284",
        "description": null,
        "status": "planning",
        "priority": "medium",
        "startDate": null,
        "endDate": null,
        "estimatedEndDate": null,
        "workspaceId": "dfbc9223-2846-48ff-bda1-c2afc1e6e6f9",
        "organizationId": "6ba41b63-5c2b-4dc7-8b7a-138d6d03320c",
        "projectManagerId": null,
        "budget": null,
        "actualCost": null,
        "currency": "USD",
        "laborRateMode": "flatRate",
        "flatLaborRatePerHour": null,
        "costTrackingEnabled": false,
        "waterfallEnabled": false,
        "baselinesEnabled": false,
        "earnedValueEnabled": false,
        "capacityEnabled": false,
        "capacityMode": "both",
        "riskLevel": "medium",
        "createdById": "8406d901-4bc5-453a-be8f-684afdb0b281",
        "createdAt": "2026-02-17T19:58:04.776Z",
        "updatedAt": "2026-02-17T19:58:04.776Z",
        "portfolioId": null,
        "programId": null,
        "size": null,
        "methodology": "agile",
        "templateId": "31567851-e8a1-41e0-bd90-7e5a852dd4e4",
        "templateVersion": null,
        "templateLocked": false,
        "templateSnapshot": null,
        "state": "DRAFT",
        "startedAt": null,
        "structureLocked": false,
        "structureSnapshot": null,
        "health": "HEALTHY",
        "behindTargetDays": null,
        "healthUpdatedAt": null,
        "deliveryOwnerUserId": null,
        "activeKpiIds": [],
        "changeManagementEnabled": false,
        "iterationsEnabled": false,
        "governanceSource": "TEMPLATE",
        "estimationMode": "both",
        "defaultIterationLengthDays": null,
        "definitionOfDone": null,
        "sourceProjectId": null,
        "cloneDepth": 0,
        "clonedAt": null,
        "clonedBy": null
      },
      {
        "id": "5694c3ba-747d-4687-a669-10d096109572",
        "name": "Blank Test 1771358198",
        "description": null,
        "status": "planning",
        "priority": "medium",
        "startDate": null,
        "endDate": null,
        "estimatedEndDate": null,
        "workspaceId": "dfbc9223-2846-48ff-bda1-c2afc1e6e6f9",
        "organizationId": "6ba41b63-5c2b-4dc7-8b7a-138d6d03320c",
        "projectManagerId": null,
        "budget": null,
        "actualCost": null,
        "currency": "USD",
        "laborRateMode": "flatRate",
        "flatLaborRatePerHour": null,
        "costTrackingEnabled": false,
        "waterfallEnabled": false,
        "baselinesEnabled": false,
        "earnedValueEnabled": false,
        "capacityEnabled": false,
        "capacityMode": "both",
        "riskLevel": "medium",
        "createdById": "8406d901-4bc5-453a-be8f-684afdb0b281",
        "createdAt": "2026-02-17T19:56:38.613Z",
        "updatedAt": "2026-02-17T19:56:38.613Z",
        "portfolioId": null,
        "programId": null,
        "size": null,
        "methodology": "agile",
        "templateId": "082cd7fa-3ea1-4bea-82e1-95415329981f",
        "templateVersion": null,
        "templateLocked": false,
        "templateSnapshot": null,
        "state": "DRAFT",
        "startedAt": null,
        "structureLocked": false,
        "structureSnapshot": null,
        "health": "HEALTHY",
        "behindTargetDays": null,
        "healthUpdatedAt": null,
        "deliveryOwnerUserId": null,
        "activeKpiIds": [],
        "changeManagementEnabled": false,
        "iterationsEnabled": false,
        "governanceSource": "TEMPLATE",
        "estimationMode": "both",
        "defaultIterationLengthDays": null,
        "definitionOfDone": null,
        "sourceProjectId": null,
        "cloneDepth": 0,
        "clonedAt": null,
        "clonedBy": null
      },
      {
        "id": "de38accb-d620-4a19-8229-d351af41d010",
        "name": "KPI Smoke 1771358048",
        "description": null,
        "status": "planning",
        "priority": "medium",
        "startDate": null,
        "endDate": null,
        "estimatedEndDate": null,
        "workspaceId": "dfbc9223-2846-48ff-bda1-c2afc1e6e6f9",
        "organizationId": "6ba41b63-5c2b-4dc7-8b7a-138d6d03320c",
        "projectManagerId": null,
        "budget": null,
        "actualCost": null,
        "currency": "USD",
        "laborRateMode": "flatRate",
        "flatLaborRatePerHour": null,
        "costTrackingEnabled": false,
        "waterfallEnabled": true,
        "baselinesEnabled": true,
        "earnedValueEnabled": false,
        "capacityEnabled": false,
        "capacityMode": "both",
        "riskLevel": "medium",
        "createdById": "8406d901-4bc5-453a-be8f-684afdb0b281",
        "createdAt": "2026-02-17T19:54:08.872Z",
        "updatedAt": "2026-02-17T19:54:08.872Z",
        "portfolioId": null,
        "programId": null,
        "size": null,
        "methodology": "agile",
        "templateId": null,
        "templateVersion": null,
        "templateLocked": false,
        "templateSnapshot": null,
        "state": "DRAFT",
        "startedAt": null,
        "structureLocked": false,
        "structureSnapshot": null,
        "health": "HEALTHY",
        "behindTargetDays": null,
        "healthUpdatedAt": null,
        "deliveryOwnerUserId": null,
        "activeKpiIds": [],
        "changeManagementEnabled": false,
        "iterationsEnabled": false,
        "governanceSource": null,
        "estimationMode": "both",
        "defaultIterationLengthDays": null,
        "definitionOfDone": null,
        "sourceProjectId": null,
        "cloneDepth": 0,
        "clonedAt": null,
        "clonedBy": null
      },
      {
        "id": "4a99345d-6950-45d0-a0f3-742f59074b46",
        "name": "Wave4D Proj 1771357977",
        "description": null,
        "status": "planning",
        "priority": "medium",
        "startDate": null,
        "endDate": null,
        "estimatedEndDate": null,
        "workspaceId": "dfbc9223-2846-48ff-bda1-c2afc1e6e6f9",
        "organizationId": "6ba41b63-5c2b-4dc7-8b7a-138d6d03320c",
        "projectManagerId": null,
        "budget": null,
        "actualCost": null,
        "currency": "USD",
        "laborRateMode": "flatRate",
        "flatLaborRatePerHour": null,
        "costTrackingEnabled": false,
        "waterfallEnabled": false,
        "baselinesEnabled": false,
        "earnedValueEnabled": false,
        "capacityEnabled": false,
        "capacityMode": "both",
        "riskLevel": "medium",
        "createdById": "8406d901-4bc5-453a-be8f-684afdb0b281",
        "createdAt": "2026-02-17T19:52:57.788Z",
        "updatedAt": "2026-02-17T19:52:57.788Z",
        "portfolioId": null,
        "programId": null,
        "size": null,
        "methodology": "agile",
        "templateId": "7b4c5432-007f-4a70-8efd-5a816df89777",
        "templateVersion": null,
        "templateLocked": false,
        "templateSnapshot": null,
        "state": "DRAFT",
        "startedAt": null,
        "structureLocked": false,
        "structureSnapshot": null,
        "health": "HEALTHY",
        "behindTargetDays": null,
        "healthUpdatedAt": null,
        "deliveryOwnerUserId": null,
        "activeKpiIds": [],
        "changeManagementEnabled": false,
        "iterationsEnabled": false,
        "governanceSource": "TEMPLATE",
        "estimationMode": "both",
        "defaultIterationLengthDays": null,
        "definitionOfDone": null,
        "sourceProjectId": null,
        "cloneDepth": 0,
        "clonedAt": null,
        "clonedBy": null
      },
      {
        "id": "00be9909-7adb-4a89-af09-762b625c30bf",
        "name": "Wave4C Proj 1771357968",
        "description": null,
        "status": "planning",
        "priority": "medium",
        "startDate": null,
        "endDate": null,
        "estimatedEndDate": null,
        "workspaceId": "dfbc9223-2846-48ff-bda1-c2afc1e6e6f9",
        "organizationId": "6ba41b63-5c2b-4dc7-8b7a-138d6d03320c",
        "projectManagerId": null,
        "budget": null,
        "actualCost": null,
        "currency": "USD",
        "laborRateMode": "flatRate",
        "flatLaborRatePerHour": null,
        "costTrackingEnabled": false,
        "waterfallEnabled": false,
        "baselinesEnabled": false,
        "earnedValueEnabled": false,
        "capacityEnabled": false,
        "capacityMode": "both",
        "riskLevel": "medium",
        "createdById": "8406d901-4bc5-453a-be8f-684afdb0b281",
        "createdAt": "2026-02-17T19:52:49.001Z",
        "updatedAt": "2026-02-17T19:52:49.001Z",
        "portfolioId": null,
        "programId": null,
        "size": null,
        "methodology": "agile",
        "templateId": "244f6817-671b-47d5-b58f-a4e4a3f44a1e",
        "templateVersion": null,
        "templateLocked": false,
        "templateSnapshot": null,
        "state": "DRAFT",
        "startedAt": null,
        "structureLocked": false,
        "structureSnapshot": null,
        "health": "HEALTHY",
        "behindTargetDays": null,
        "healthUpdatedAt": null,
        "deliveryOwnerUserId": null,
        "activeKpiIds": [],
        "changeManagementEnabled": false,
        "iterationsEnabled": false,
        "governanceSource": "TEMPLATE",
        "estimationMode": "both",
        "defaultIterationLengthDays": null,
        "definitionOfDone": null,
        "sourceProjectId": null,
        "cloneDepth": 0,
        "clonedAt": null,
        "clonedBy": null
      }
    ],
    "total": 30,
    "page": 1,
    "totalPages": 3
  }
}
